[
  {

    "regional_code": "005",
    "code": 9101,
    "name": "CENTRO DE LOS RECURSOS NATURALES RENOVABLES- LA SALADA - ANTIOQUIA"
  },
  {

    "regional_code": "005",
    "code": 9127,
    "name": "CENTRO DE FORMACION MINERO AMBIENTAL"
  },
  {

    "regional_code": "005",
    "code": 9201,
    "name": "CENTRO DE DISEÑO Y MANUFACTURA DEL CUERO -ANTIOQUIA"
  },
  {

    "regional_code": "005",
    "code": 9202,
    "name": "CENTRO DE FORMACIÓN EN DISEÑO, CONFECCIÓN Y MODA.-ANTIOQUIA"
  },
  {

    "regional_code": "005",
    "code": 9203,
    "name": "CENTRO PARA EL DESARROLLO DEL HABITAT Y LA CONSTRUCCION-ANTIOQUIA"
  },
  {

    "regional_code": "005",
    "code": 9204,
    "name": "CENTRO DE TECNOLOGÍA DE LA MANUFACTURA AVANZADA-ANTIOQUIA"
  },
  {

    "regional_code": "005",
    "code": 9205,
    "name": "CENTRO TECNOLOGICO DEL MOBILIARIO-ANTIOQUIA"
  },
  {

    "regional_code": "005",
    "code": 9206,
    "name": "CENTRO TEXTIL Y DE GESTIÓN INDUSTRIAL- ANTIOQUIA"
  },
  {

    "regional_code": "005",
    "code": 9301,
    "name": "CENTRO DE COMERCIO-ANTIOQUIA"
  },
  {

    "regional_code": "005",
    "code": 9401,
    "name": "CENTRO DE SERVICIOS DE SALUD-ANTIOQUIA"
  },
  {

    "regional_code": "005",
    "code": 9402,
    "name": "CENTRO DE SERVICIOS Y GESTION EMPRESARIAL-ANTIOQUIA"
  },
  {

    "regional_code": "005",
    "code": 9501,
    "name": "COMPLEJO TECNOLOGICO PARA LA GESTION AGROEMPRESARIAL-ANTIOQUIA"
  },
  {

    "regional_code": "005",
    "code": 9502,
    "name": "COMPLEJO TECNOLOGICO MINERO AGROEMPRESARIAL- ANTIOQUIA"
  },
  {

    "regional_code": "005",
    "code": 9503,
    "name": "CENTRO DE LA INNOVACION, LA AGROINDUSTRIA Y LA AVIACION-ANTIOQUIA"
  },
  {

    "regional_code": "005",
    "code": 9504,
    "name": "COMPLEJO TECNOLOGICO AGROINDUSTRIAL, PECUARIO Y TURISTICO-ANTIOQUIA"
  },
  {

    "regional_code": "005",
    "code": 9549,
    "name": "COMPLEJO TECNOLÓGICO, TURÍSTICO Y AGROINDUSTRIAL DEL OCCIDENTE ANTIOQUEÑO"
  },
  {

    "regional_code": "008",
    "code": 9103,
    "name": "CENTRO PARA EL DESARROLLO AGROECOLOGICO Y AGROINDUSTRIAL -ATLANTICO"
  },
  {

    "regional_code": "008",
    "code": 9207,
    "name": "CENTRO NACIONAL COLOMBO ALEMAN-ATLANTICO"
  },
  {

    "regional_code": "008",
    "code": 9208,
    "name": "CENTRO INDUSTRIAL Y DE AVIACION-ATLANTICO"
  },
  {

    "regional_code": "008",
    "code": 9302,
    "name": "CENTRO DE COMERCIO Y SERVICIOS-ATLANTICO"
  },
  {

    "regional_code": "011",
    "code": 9209,
    "name": "CENTRO DE TECNOLOGIAS PARA LA CONSTRUCCION Y LA MADERA-BTA D C"
  },
  {

    "regional_code": "011",
    "code": 9210,
    "name": "CENTRO DE ELECTRICIDAD Y ELECTRONICA Y TELECOMUNICACIONES-BTA D C"
  },
  {

    "regional_code": "011",
    "code": 9211,
    "name": "CENTRO DE GESTION INDUSTRIAL  -BTA D C"
  },
  {

    "regional_code": "011",
    "code": 9212,
    "name": "CENTRO DE MANUFACTURA EN TEXTILES Y CUERO-BTA D C"
  },
  {

    "regional_code": "011",
    "code": 9213,
    "name": "CENTRO DE TECNOLOGIAS DEL TRANSPORTE -BTA D C"
  },
  {

    "regional_code": "011",
    "code": 9214,
    "name": "CENTRO METALMECANICO-BTA D C"
  },
  {

    "regional_code": "011",
    "code": 9215,
    "name": "CENTRO DE MATERIALES Y ENSAYOS-BTA D C"
  },
  {

    "regional_code": "011",
    "code": 9216,
    "name": "CENTRO DE DISEÑO Y  METROLOGIA-BTA D C"
  },
  {

    "regional_code": "011",
    "code": 9217,
    "name": "CENTRO PARA LA INDUSTRIA DE LA COMUNICACIÓN GRAFICA-BTA D C"
  },
  {

    "regional_code": "011",
    "code": 9303,
    "name": "CENTRO DE GESTION DE MERCADOS, LOGISTICA Y TECNOLOGIAS DE LA INFORMACION-BTA D C"
  },
  {

    "regional_code": "011",
    "code": 9403,
    "name": "CENTRO DE FORMACION DE TALENTO HUMANO EN SALUD-BTA D C"
  },
  {

    "regional_code": "011",
    "code": 9404,
    "name": "CENTRO DE GESTION ADMINISTRATIVA-BTA D C"
  },
  {

    "regional_code": "011",
    "code": 9405,
    "name": "CENTRO DE SERVICIOS FINANCIEROS-BTA D C"
  },
  {

    "regional_code": "011",
    "code": 9406,
    "name": "CENTRO NACIONAL DE HOTELERIA, TURISMO Y ALIMENTOS-BTA D C"
  },
  {

    "regional_code": "011",
    "code": 9508,
    "name": "CENTRO DE FORMACION EN ACTIVIDAD FISICA Y CULTURA-BTA DC"
  },
  {

    "regional_code": "013",
    "code": 9104,
    "name": "CENTRO AGROEMPRESARIAL Y MINERO-BOLIVAR"
  },
  {

    "regional_code": "013",
    "code": 9105,
    "name": "CENTRO INTERNACIONAL NAUTICO, FLUVIAL Y PORTUARIO-BOLIVAR"
  },
  {

    "regional_code": "013",
    "code": 9218,
    "name": "CENTRO PARA LA INDUSTRIA PETROQUIMICA-BOLIVAR"
  },
  {

    "regional_code": "013",
    "code": 9304,
    "name": "CENTRO DE COMERCIO Y SERVICIOS-BOLIVAR"
  },
  {

    "regional_code": "015",
    "code": 9110,
    "name": "CENTRO DE DESARROLLO AGROPECUARIO Y AGROINDUSTRIAL - BOYACA"
  },
  {

    "regional_code": "015",
    "code": 9111,
    "name": "CENTRO  MINERO- BOYACA"
  },
  {

    "regional_code": "015",
    "code": 9305,
    "name": "CENTRO DE GESTION ADMINISTRATIVA Y FORTALECIMIENTO EMPRESARIAL- BOYACA"
  },
  {

    "regional_code": "015",
    "code": 9514,
    "name": "CENTRO INDUSTRIAL DE MANTENIMIENTO Y MANUFACTURA- BOYACA"
  },
  {

    "regional_code": "017",
    "code": 9112,
    "name": "CENTRO PARA LA FORMACION CAFETERA-CALDAS"
  },
  {

    "regional_code": "017",
    "code": 9219,
    "name": "CENTRO DE AUTOMATIZACION INDUSTRIAL-CALDAS"
  },
  {

    "regional_code": "017",
    "code": 9220,
    "name": "CENTRO DE PROCESOS INDUSTRIALES Y CONSTRUCCION-CALDAS"
  },
  {

    "regional_code": "017",
    "code": 9306,
    "name": "CENTRO DE COMERCIO Y SERVICIOS-CALDAS"
  },
  {

    "regional_code": "017",
    "code": 9515,
    "name": "CENTRO PECUARIO Y AGROEMPRESARIAL-CALDAS"
  },
  {

    "regional_code": "018",
    "code": 9516,
    "name": "CENTRO TECNOLOGICO DE LA AMAZONIA-CAQUETA"
  },
  {

    "regional_code": "019",
    "code": 9113,
    "name": "CENTRO AGROPECUARIO-CAUCA"
  },
  {

    "regional_code": "019",
    "code": 9221,
    "name": "CENTRO DE TELEINFORMATICA Y PRODUCCION INDUSTRIAL CAUCA"
  },
  {

    "regional_code": "019",
    "code": 9307,
    "name": "CENTRO DE COMERCIO Y SERVICIOS-CAUCA"
  },
  {

    "regional_code": "020",
    "code": 9114,
    "name": "CENTRO BIOTECNOLOGICO DEL CARIBE-CESAR"
  },
  {

    "regional_code": "020",
    "code": 9520,
    "name": "CENTRO AGROEMPRESARIAL-CESAR"
  },
  {

    "regional_code": "020",
    "code": 9521,
    "name": "CENTRO DE OPERACIÓN Y MANTENIMIENTO MINERO-CESAR"
  },
  {

    "regional_code": "023",
    "code": 9115,
    "name": "CENTRO AGROPECUARIO Y DE BIOTECNOLOGIA EL PORVENIR-CORDOBA"
  },
  {

    "regional_code": "023",
    "code": 9523,
    "name": "CENTRO DE COMERCIO, INDUSTRIA Y TURISMO DE CORDOBA-CORDOBA"
  },
  {

    "regional_code": "025",
    "code": 9232,
    "name": "CENTRO INDUSTRIAL Y DESARROLLO EMPRESARIAL DE SOACHA-CUNDINAMARCA"
  },
  {

    "regional_code": "025",
    "code": 9509,
    "name": "CENTRO DE DESARROLLO AGROINDUSTRIAL Y EMPRESARIAL-CUNDINAMARCA"
  },
  {

    "regional_code": "025",
    "code": 9510,
    "name": "CENTRO  AGROECOLOGICO Y EMPRESARIAL-CUNDINAMARCA"
  },
  {

    "regional_code": "025",
    "code": 9511,
    "name": "CENTRO DE LA TECNOLOGIA DEL DISEÑO Y LA PRODUCTIVIDAD EMPRESARIAL-CUNDINAMARCA"
  },
  {

    "regional_code": "025",
    "code": 9512,
    "name": "CENTRO DE BIOTECNOLOGIA AGROPECUARIA"
  },
  {

    "regional_code": "025",
    "code": 9513,
    "name": "CENTRO DE DESARROLLO AGROEMPRESARIAL-CUNDINAMARCA"
  },
  {

    "regional_code": "027",
    "code": 9522,
    "name": "CENTRO DE RECURSOS NATURALES, INDUSTRIA Y BIODIVERSIDAD"
  },
  {

    "regional_code": "041",
    "code": 9116,
    "name": "CENTRO DE FORMACIÓN AGROINDUSTRIAL"
  },
  {

    "regional_code": "041",
    "code": 9525,
    "name": "CENTRO AGROEMPRESARIAL Y DESARROLLO PECUARIO DEL HUILA"
  },
  {

    "regional_code": "041",
    "code": 9526,
    "name": "CENTRO DE DESARROLLO AGROEMPRESARIAL Y TURÍSTICO DEL HUILA"
  },
  {

    "regional_code": "041",
    "code": 9527,
    "name": "CENTRO DE LA INDUSTRIA, LA EMPRESA Y LOS SERVICIOS"
  },
  {

    "regional_code": "041",
    "code": 9528,
    "name": "CENTRO DE GESTIÓN Y DESARROLLO SOSTENIBLE SURCOLOMBIANO"
  },
  {

    "regional_code": "044",
    "code": 9222,
    "name": "CENTRO INDUSTRIAL Y DE ENERGÍAS ALTERNATIVAS"
  },
  {

    "regional_code": "044",
    "code": 9524,
    "name": "CENTRO AGROEMPRESARIAL Y ACUÍCOLA"
  },
  {

    "regional_code": "047",
    "code": 9118,
    "name": "CENTRO ACUICOLA Y AGROINDUSTRIAL DE GAIRA-MAGDALENA"
  },
  {

    "regional_code": "047",
    "code": 9529,
    "name": "CENTRO DE LOGISTICA Y PROMOCION ECOTURISTICA DEL MAGDALENA"
  },
  {

    "regional_code": "050",
    "code": 9117,
    "name": "CENTRO AGROINDUSTRIAL DEL META"
  },
  {

    "regional_code": "050",
    "code": 9532,
    "name": "CENTRO DE INDUSTRIA Y SERVICIOS DEL META"
  },
  {

    "regional_code": "052",
    "code": 9534,
    "name": "CENTRO SUR COLOMBIANO DE LOGÍSTICA INTERNACIONAL-NARIÑO"
  },
  {

    "regional_code": "052",
    "code": 9535,
    "name": "CENTRO AGROINDUSTRIAL Y PESQUERO DE LA COSTA PACIFICA-NARIÑO"
  },
  {

    "regional_code": "052",
    "code": 9536,
    "name": "CENTRO INTERNACIONAL DE PRODUCCIÓN LIMPIA – LOPE-NARIÑO"
  },
  {

    "regional_code": "054",
    "code": 9119,
    "name": "CENTRO DE FORMACION PARA EL DESARROLLO RURAL Y MINERO-NORTE DE SANTANDER"
  },
  {

    "regional_code": "054",
    "code": 9537,
    "name": "CENTRO DE LA INDUSTRIA, LA EMPRESA Y LOS SERVICIOS-NORTE DE SANTANDER"
  },
  {

    "regional_code": "063",
    "code": 9120,
    "name": "CENTRO AGROINDUSTRIAL-QUINDIO"
  },
  {

    "regional_code": "063",
    "code": 9231,
    "name": "CENTRO PARA EL DESARROLLO TECNOLOGICO DE LA CONSTRUCCION QUINDIO"
  },
  {

    "regional_code": "063",
    "code": 9538,
    "name": "CENTRO DE COMERCIO, INDUSTRIA Y TURISMO-QUINDIO"
  },
  {

    "regional_code": "066",
    "code": 9121,
    "name": "CENTRO ATENCION SECTOR AGROPECUARIO-RISARALDA"
  },
  {

    "regional_code": "066",
    "code": 9223,
    "name": "CENTRO DE DISEÑO E INNOVACION TECNOLOGICA INDUSTRIAL RISARALDA"
  },
  {

    "regional_code": "066",
    "code": 9308,
    "name": "CENTRO DE COMERCIO Y SERVICIOS-RISARALDA"
  },
  {

    "regional_code": "068",
    "code": 9122,
    "name": "CENTRO ATENCION SECTOR AGROPECUARIO-SANTANDER"
  },
  {

    "regional_code": "068",
    "code": 9224,
    "name": "CENTRO INDUSTRIAL DE MANTENIMIENTO INTEGRAL-SANTANDER"
  },
  {

    "regional_code": "068",
    "code": 9225,
    "name": "CENTRO INDUSTRIAL DEL DISEÑO Y LA MANUFACTURA-SANTANDER"
  },
  {

    "regional_code": "068",
    "code": 9309,
    "name": "CENTRO DE SERVICIOS EMPRESARIALES Y TURISTICOS -SANTANDER"
  },
  {

    "regional_code": "068",
    "code": 9540,
    "name": "CENTRO INDUSTRIAL Y DEL DESARROLLO TECNOLOGICO-SANTANDER"
  },
  {

    "regional_code": "068",
    "code": 9541,
    "name": "CENTRO AGROTURISTICO -SANTANDER"
  },
  {

    "regional_code": "068",
    "code": 9545,
    "name": "CENTRO AGROEMPRESARIAL Y TURISTICO DE LOS ANDES-SANTANDER"
  },
  {

    "regional_code": "068",
    "code": 9546,
    "name": "CENTRO DE GESTION AGROEMPRESARIAL DEL ORIENTE-SANTANDER"
  },
  {

    "regional_code": "070",
    "code": 9542,
    "name": "CENTRO DE LA INNOVACION, LA TECNOLOGIA Y LOS SERVICIOS-SUCRE"
  },
  {

    "regional_code": "073",
    "code": 9123,
    "name": "CENTRO AGROPECUARIO LA GRANJA-TOLIMA"
  },
  {

    "regional_code": "073",
    "code": 9226,
    "name": "CENTRO DE INDUSTRIA Y CONSTRUCCION-TOLIMA"
  },
  {

    "regional_code": "073",
    "code": 9310,
    "name": "CENTRO DE COMERCIO Y SERVICIOS-TOLIMA"
  },
  {

    "regional_code": "076",
    "code": 9124,
    "name": "CENTRO AGROPECUARIO DE BUGA-VALLE"
  },
  {

    "regional_code": "076",
    "code": 9125,
    "name": "CENTRO LATINOAMERICANO DE ESPECIES MENORES-VALLE"
  },
  {

    "regional_code": "076",
    "code": 9126,
    "name": "CENTRO NAUTICO PESQUERO DE BUENAVENTURA-VALLE"
  },
  {

    "regional_code": "076",
    "code": 9227,
    "name": "CENTRO DE ELECTRICIDAD Y AUTOMATIZACION INDUSTRIAL – CEAI-VALLE"
  },
  {

    "regional_code": "076",
    "code": 9228,
    "name": "CENTRO DE LA CONSTRUCCION-VALLE"
  },
  {

    "regional_code": "076",
    "code": 9229,
    "name": "CENTRO DE DISEÑO TECNOLOGICO INDUSTRIAL-VALLE"
  },
  {

    "regional_code": "076",
    "code": 9230,
    "name": "CENTRO NACIONAL DE ASISTENCIA TECNICA A LA INDUSTRIA – ASTIN-VALLE"
  },
  {

    "regional_code": "076",
    "code": 9311,
    "name": "CENTRO DE GESTION TECNOLÓGICA DE SERVICIOS-VALLE"
  },
  {

    "regional_code": "076",
    "code": 9543,
    "name": "CENTRO DE TECNOLOGIAS AGROINDUSTRIALES-VALLE"
  },
  {

    "regional_code": "076",
    "code": 9544,
    "name": "CENTRO DE BIOTECNOLOGIA INDUSTRIAL-VALLE"
  },
  {

    "regional_code": "081",
    "code": 9530,
    "name": "CENTRO DE GESTION Y DESARROLLO AGROINDUSTRIAL DE ARAUCA"
  },
  {

    "regional_code": "085",
    "code": 9519,
    "name": "CENTRO AGROINDUSTRIAL Y FORTALECIMIENTO  EMPRESARIAL DE CASANARE"
  },
  {

    "regional_code": "086",
    "code": 9518,
    "name": "CENTRO AGROFORESTAL Y ACUICOLA ARAPAIMA - PUTUMAYO"
  },
  {

    "regional_code": "088",
    "code": 9539,
    "name": "CENTRO DE FORMACION TURISTICA, GENTE DE MAR Y DE SERVICIOS -SAN ANDRES"
  },
  {

    "regional_code": "091",
    "code": 9517,
    "name": "CENTRO  PARA LA BIODIVERSIDAD Y EL TURISMO DEL AMAZONAS"
  },
  {

    "regional_code": "094",
    "code": 9547,
    "name": "CENTRO AMBIENTAL Y ECOTURISTICO DEL NORORIENTE AMAZONICO -GUAINIA"
  },
  {

    "regional_code": "095",
    "code": 9533,
    "name": "CENTRO DE DESARROLLO AGROINDUSTRIAL, TURISTICO Y TECNOLOGICO DEL GUAVIARE"
  },
  {

    "regional_code": "097",
    "code": 9548,
    "name": "CENTRO AGROPECUARIO Y DE SERVICIOS AMBIENTALES “JIRI – JIRIMO” - VAUPES"
  },
  {

    "regional_code": "099",
    "code": 9531,
    "name": "CENTRO DE PRODUCCIÓN Y TRANSFORMACION AGROINDUSTRIAL DE LA ORINOQUIA -VICHADA"
  }
]
